^C:\USERS\ALBER\DOCUMENTS\EEDD\PROJECT1_FINAL\PROJECT1\MAIN.CPP|C:\USERS\ALBER\DOCUMENTS\EEDD\PROJECT1_FINAL\PROJECT1\PRODUCTO.CPP
C:\USERS\ALBER\DOCUMENTS\EEDD\PROJECT1_FINAL\PROJECT1\DEBUG\VC141.PDB
C:\USERS\ALBER\DOCUMENTS\EEDD\PROJECT1_FINAL\PROJECT1\DEBUG\VC141.IDB
C:\USERS\ALBER\DOCUMENTS\EEDD\PROJECT1_FINAL\PROJECT1\DEBUG\PRODUCTO.OBJ
C:\USERS\ALBER\DOCUMENTS\EEDD\PROJECT1_FINAL\PROJECT1\DEBUG\MAIN.OBJ
^C:\USERS\ALBER\DOCUMENTS\EEDD\PROJECT1_FINAL\PROJECT1\PRODUCTO.CPP
C:\USERS\ALBER\DOCUMENTS\EEDD\PROJECT1_FINAL\PROJECT1\DEBUG\VC141.PDB
^C:\USERS\ALBER\DOCUMENTS\EEDD\PROJECT1_FINAL\PROJECT1\MAIN.CPP
C:\USERS\ALBER\DOCUMENTS\EEDD\PROJECT1_FINAL\PROJECT1\DEBUG\VC141.PDB
C:\USERS\ALBER\DOCUMENTS\EEDD\PROJECT1_FINAL\PROJECT1\DEBUG\VC141.IDB
C:\USERS\ALBER\DOCUMENTS\EEDD\PROJECT1_FINAL\PROJECT1\DEBUG\MAIN.OBJ
^C:\USERS\ADMIN\DESKTOP\PROJECT1_FINAL\PROJECT1\MAIN.CPP|C:\USERS\ADMIN\DESKTOP\PROJECT1_FINAL\PROJECT1\PRODUCTO.CPP
C:\USERS\ADMIN\DESKTOP\PROJECT1_FINAL\PROJECT1\DEBUG\VC141.PDB
C:\USERS\ADMIN\DESKTOP\PROJECT1_FINAL\PROJECT1\DEBUG\VC141.IDB
C:\USERS\ADMIN\DESKTOP\PROJECT1_FINAL\PROJECT1\DEBUG\PRODUCTO.OBJ
C:\USERS\ADMIN\DESKTOP\PROJECT1_FINAL\PROJECT1\DEBUG\MAIN.OBJ
^C:\USERS\ADMIN\DESKTOP\PROJECT1_FINAL\PROJECT1\MAIN.CPP
C:\USERS\ADMIN\DESKTOP\PROJECT1_FINAL\PROJECT1\DEBUG\VC141.PDB
^C:\USERS\ADMIN\DESKTOP\PROJECT1_FINAL\PROJECT1\PRODUCTO.CPP
C:\USERS\ADMIN\DESKTOP\PROJECT1_FINAL\PROJECT1\DEBUG\VC141.PDB
^C:\USERS\ADMIN\DESKTOP\PROJECT2\PROJECT1\MAIN.CPP|C:\USERS\ADMIN\DESKTOP\PROJECT2\PROJECT1\PRODUCTO.CPP
C:\USERS\ADMIN\DESKTOP\PROJECT2\PROJECT1\DEBUG\VC141.PDB
C:\USERS\ADMIN\DESKTOP\PROJECT2\PROJECT1\DEBUG\VC141.IDB
C:\USERS\ADMIN\DESKTOP\PROJECT2\PROJECT1\DEBUG\PRODUCTO.OBJ
^C:\USERS\ADMIN\DESKTOP\PROJECT2\PROJECT1\PRODUCTO.CPP
C:\USERS\ADMIN\DESKTOP\PROJECT2\PROJECT1\DEBUG\PRODUCTO.OBJ
