^C:\USERS\ALBER\DOCUMENTS\EEDD\PROJECT1_FINAL\PROJECT1\DEBUG\MAIN.OBJ|C:\USERS\ALBER\DOCUMENTS\EEDD\PROJECT1_FINAL\PROJECT1\DEBUG\PRODUCTO.OBJ
C:\USERS\ALBER\DOCUMENTS\EEDD\PROJECT1_FINAL\DEBUG\PROJECT1.EXE
C:\USERS\ALBER\DOCUMENTS\EEDD\PROJECT1_FINAL\DEBUG\PROJECT1.ILK
C:\USERS\ALBER\DOCUMENTS\EEDD\PROJECT1_FINAL\DEBUG\PROJECT1.PDB
^C:\USERS\ADMIN\DESKTOP\PROJECT1_FINAL\PROJECT1\DEBUG\MAIN.OBJ|C:\USERS\ADMIN\DESKTOP\PROJECT1_FINAL\PROJECT1\DEBUG\PRODUCTO.OBJ
C:\USERS\ADMIN\DESKTOP\PROJECT1_FINAL\DEBUG\PROJECT1.ILK
C:\USERS\ADMIN\DESKTOP\PROJECT1_FINAL\DEBUG\PROJECT1.EXE
C:\USERS\ADMIN\DESKTOP\PROJECT1_FINAL\DEBUG\PROJECT1.PDB
^C:\USERS\ADMIN\DESKTOP\PROJECT2\PROJECT1\DEBUG\MAIN.OBJ|C:\USERS\ADMIN\DESKTOP\PROJECT2\PROJECT1\DEBUG\PRODUCTO.OBJ
C:\USERS\ADMIN\DESKTOP\PROJECT2\DEBUG\PROJECT1.EXE
C:\USERS\ADMIN\DESKTOP\PROJECT2\DEBUG\PROJECT1.ILK
C:\USERS\ADMIN\DESKTOP\PROJECT2\DEBUG\PROJECT1.PDB
