^E:\JTORT\DOCUMENTS\UNIVERSIDAD\2_CURSO\1_CUATRIMESTRE\EEDD\GITLAB\EEDD\PRACTICA3\PROJECT1\X64\DEBUG\CLIENTE.OBJ|E:\JTORT\DOCUMENTS\UNIVERSIDAD\2_CURSO\1_CUATRIMESTRE\EEDD\GITLAB\EEDD\PRACTICA3\PROJECT1\X64\DEBUG\MAIN.OBJ|E:\JTORT\DOCUMENTS\UNIVERSIDAD\2_CURSO\1_CUATRIMESTRE\EEDD\GITLAB\EEDD\PRACTICA3\PROJECT1\X64\DEBUG\PEDIDO.OBJ|E:\JTORT\DOCUMENTS\UNIVERSIDAD\2_CURSO\1_CUATRIMESTRE\EEDD\GITLAB\EEDD\PRACTICA3\PROJECT1\X64\DEBUG\PHARMADRON.OBJ|E:\JTORT\DOCUMENTS\UNIVERSIDAD\2_CURSO\1_CUATRIMESTRE\EEDD\GITLAB\EEDD\PRACTICA3\PROJECT1\X64\DEBUG\PRODUCTO.OBJ|E:\JTORT\DOCUMENTS\UNIVERSIDAD\2_CURSO\1_CUATRIMESTRE\EEDD\GITLAB\EEDD\PRACTICA3\PROJECT1\X64\DEBUG\UTM.OBJ
C:\PROGRAM FILES (X86)\WINDOWS KITS\10\LIB\10.0.17134.0\UM\X64\KERNEL32.LIB
C:\PROGRAM FILES (X86)\WINDOWS KITS\10\LIB\10.0.17134.0\UM\X64\USER32.LIB
C:\PROGRAM FILES (X86)\WINDOWS KITS\10\LIB\10.0.17134.0\UM\X64\GDI32.LIB
C:\PROGRAM FILES (X86)\WINDOWS KITS\10\LIB\10.0.17134.0\UM\X64\WINSPOOL.LIB
C:\PROGRAM FILES (X86)\WINDOWS KITS\10\LIB\10.0.17134.0\UM\X64\COMDLG32.LIB
C:\PROGRAM FILES (X86)\WINDOWS KITS\10\LIB\10.0.17134.0\UM\X64\ADVAPI32.LIB
C:\PROGRAM FILES (X86)\WINDOWS KITS\10\LIB\10.0.17134.0\UM\X64\SHELL32.LIB
C:\PROGRAM FILES (X86)\WINDOWS KITS\10\LIB\10.0.17134.0\UM\X64\OLE32.LIB
C:\PROGRAM FILES (X86)\WINDOWS KITS\10\LIB\10.0.17134.0\UM\X64\OLEAUT32.LIB
C:\PROGRAM FILES (X86)\WINDOWS KITS\10\LIB\10.0.17134.0\UM\X64\UUID.LIB
C:\PROGRAM FILES (X86)\WINDOWS KITS\10\LIB\10.0.17134.0\UM\X64\ODBC32.LIB
C:\PROGRAM FILES (X86)\WINDOWS KITS\10\LIB\10.0.17134.0\UM\X64\ODBCCP32.LIB
E:\JTORT\DOCUMENTS\UNIVERSIDAD\2_CURSO\1_CUATRIMESTRE\EEDD\GITLAB\EEDD\PRACTICA3\PROJECT1\X64\DEBUG\CLIENTE.OBJ
E:\JTORT\DOCUMENTS\UNIVERSIDAD\2_CURSO\1_CUATRIMESTRE\EEDD\GITLAB\EEDD\PRACTICA3\PROJECT1\X64\DEBUG\MAIN.OBJ
E:\JTORT\DOCUMENTS\UNIVERSIDAD\2_CURSO\1_CUATRIMESTRE\EEDD\GITLAB\EEDD\PRACTICA3\PROJECT1\X64\DEBUG\PEDIDO.OBJ
E:\JTORT\DOCUMENTS\UNIVERSIDAD\2_CURSO\1_CUATRIMESTRE\EEDD\GITLAB\EEDD\PRACTICA3\PROJECT1\X64\DEBUG\PHARMADRON.OBJ
E:\JTORT\DOCUMENTS\UNIVERSIDAD\2_CURSO\1_CUATRIMESTRE\EEDD\GITLAB\EEDD\PRACTICA3\PROJECT1\X64\DEBUG\PRODUCTO.OBJ
E:\JTORT\DOCUMENTS\UNIVERSIDAD\2_CURSO\1_CUATRIMESTRE\EEDD\GITLAB\EEDD\PRACTICA3\PROJECT1\X64\DEBUG\UTM.OBJ
C:\WINDOWS\SYSTEM32\TZRES.DLL
C:\WINDOWS\GLOBALIZATION\SORTING\SORTDEFAULT.NLS
C:\PROGRAM FILES (X86)\MICROSOFT VISUAL STUDIO\2017\COMMUNITY\VC\TOOLS\MSVC\14.15.26726\LIB\X64\MSVCPRTD.LIB
C:\PROGRAM FILES (X86)\MICROSOFT VISUAL STUDIO\2017\COMMUNITY\VC\TOOLS\MSVC\14.15.26726\LIB\X64\MSVCRTD.LIB
C:\PROGRAM FILES (X86)\MICROSOFT VISUAL STUDIO\2017\COMMUNITY\VC\TOOLS\MSVC\14.15.26726\LIB\X64\OLDNAMES.LIB
C:\PROGRAM FILES (X86)\MICROSOFT VISUAL STUDIO\2017\COMMUNITY\VC\TOOLS\MSVC\14.15.26726\LIB\X64\VCRUNTIMED.LIB
C:\PROGRAM FILES (X86)\WINDOWS KITS\10\LIB\10.0.17134.0\UCRT\X64\UCRTD.LIB
C:\PROGRAM FILES (X86)\MICROSOFT VISUAL STUDIO\2017\COMMUNITY\VC\TOOLS\MSVC\14.15.26726\BIN\HOSTX86\X64\LINK.EXE
C:\PROGRAM FILES (X86)\WINDOWS KITS\10\BIN\10.0.17134.0\X86\RC.EXE
C:\PROGRAM FILES (X86)\MICROSOFT VISUAL STUDIO\2017\COMMUNITY\VC\TOOLS\MSVC\14.15.26726\BIN\HOSTX86\X86\CVTRES.EXE
C:\PROGRAM FILES (X86)\MICROSOFT VISUAL STUDIO\2017\COMMUNITY\VC\TOOLS\MSVC\14.15.26726\BIN\HOSTX86\X86\MSPDBSRV.EXE
^E:\JTORT\DOCUMENTS\UNIVERSIDAD\2_CURSO\1_CUATRIMESTRE\EEDD\GITLAB\EEDD\PRÁCTICA 4\PROJECT1\X64\DEBUG\CLIENTE.OBJ|E:\JTORT\DOCUMENTS\UNIVERSIDAD\2_CURSO\1_CUATRIMESTRE\EEDD\GITLAB\EEDD\PRÁCTICA 4\PROJECT1\X64\DEBUG\MAIN.OBJ|E:\JTORT\DOCUMENTS\UNIVERSIDAD\2_CURSO\1_CUATRIMESTRE\EEDD\GITLAB\EEDD\PRÁCTICA 4\PROJECT1\X64\DEBUG\PEDIDO.OBJ|E:\JTORT\DOCUMENTS\UNIVERSIDAD\2_CURSO\1_CUATRIMESTRE\EEDD\GITLAB\EEDD\PRÁCTICA 4\PROJECT1\X64\DEBUG\PHARMADRON.OBJ|E:\JTORT\DOCUMENTS\UNIVERSIDAD\2_CURSO\1_CUATRIMESTRE\EEDD\GITLAB\EEDD\PRÁCTICA 4\PROJECT1\X64\DEBUG\PRODUCTO.OBJ|E:\JTORT\DOCUMENTS\UNIVERSIDAD\2_CURSO\1_CUATRIMESTRE\EEDD\GITLAB\EEDD\PRÁCTICA 4\PROJECT1\X64\DEBUG\UTM.OBJ
C:\PROGRAM FILES (X86)\WINDOWS KITS\10\LIB\10.0.17134.0\UM\X64\KERNEL32.LIB
C:\PROGRAM FILES (X86)\WINDOWS KITS\10\LIB\10.0.17134.0\UM\X64\USER32.LIB
C:\PROGRAM FILES (X86)\WINDOWS KITS\10\LIB\10.0.17134.0\UM\X64\GDI32.LIB
C:\PROGRAM FILES (X86)\WINDOWS KITS\10\LIB\10.0.17134.0\UM\X64\WINSPOOL.LIB
C:\PROGRAM FILES (X86)\WINDOWS KITS\10\LIB\10.0.17134.0\UM\X64\COMDLG32.LIB
C:\PROGRAM FILES (X86)\WINDOWS KITS\10\LIB\10.0.17134.0\UM\X64\ADVAPI32.LIB
C:\PROGRAM FILES (X86)\WINDOWS KITS\10\LIB\10.0.17134.0\UM\X64\SHELL32.LIB
C:\PROGRAM FILES (X86)\WINDOWS KITS\10\LIB\10.0.17134.0\UM\X64\OLE32.LIB
C:\PROGRAM FILES (X86)\WINDOWS KITS\10\LIB\10.0.17134.0\UM\X64\OLEAUT32.LIB
C:\PROGRAM FILES (X86)\WINDOWS KITS\10\LIB\10.0.17134.0\UM\X64\UUID.LIB
C:\PROGRAM FILES (X86)\WINDOWS KITS\10\LIB\10.0.17134.0\UM\X64\ODBC32.LIB
C:\PROGRAM FILES (X86)\WINDOWS KITS\10\LIB\10.0.17134.0\UM\X64\ODBCCP32.LIB
E:\JTORT\DOCUMENTS\UNIVERSIDAD\2_CURSO\1_CUATRIMESTRE\EEDD\GITLAB\EEDD\PRáCTICA 4\PROJECT1\X64\DEBUG\CLIENTE.OBJ
E:\JTORT\DOCUMENTS\UNIVERSIDAD\2_CURSO\1_CUATRIMESTRE\EEDD\GITLAB\EEDD\PRáCTICA 4\PROJECT1\X64\DEBUG\MAIN.OBJ
E:\JTORT\DOCUMENTS\UNIVERSIDAD\2_CURSO\1_CUATRIMESTRE\EEDD\GITLAB\EEDD\PRáCTICA 4\PROJECT1\X64\DEBUG\PEDIDO.OBJ
E:\JTORT\DOCUMENTS\UNIVERSIDAD\2_CURSO\1_CUATRIMESTRE\EEDD\GITLAB\EEDD\PRáCTICA 4\PROJECT1\X64\DEBUG\PHARMADRON.OBJ
E:\JTORT\DOCUMENTS\UNIVERSIDAD\2_CURSO\1_CUATRIMESTRE\EEDD\GITLAB\EEDD\PRáCTICA 4\PROJECT1\X64\DEBUG\PRODUCTO.OBJ
E:\JTORT\DOCUMENTS\UNIVERSIDAD\2_CURSO\1_CUATRIMESTRE\EEDD\GITLAB\EEDD\PRáCTICA 4\PROJECT1\X64\DEBUG\UTM.OBJ
C:\WINDOWS\SYSTEM32\TZRES.DLL
C:\WINDOWS\GLOBALIZATION\SORTING\SORTDEFAULT.NLS
C:\PROGRAM FILES (X86)\MICROSOFT VISUAL STUDIO\2017\COMMUNITY\VC\TOOLS\MSVC\14.15.26726\LIB\X64\MSVCPRTD.LIB
C:\PROGRAM FILES (X86)\MICROSOFT VISUAL STUDIO\2017\COMMUNITY\VC\TOOLS\MSVC\14.15.26726\LIB\X64\MSVCRTD.LIB
C:\PROGRAM FILES (X86)\MICROSOFT VISUAL STUDIO\2017\COMMUNITY\VC\TOOLS\MSVC\14.15.26726\LIB\X64\OLDNAMES.LIB
C:\PROGRAM FILES (X86)\MICROSOFT VISUAL STUDIO\2017\COMMUNITY\VC\TOOLS\MSVC\14.15.26726\LIB\X64\VCRUNTIMED.LIB
C:\PROGRAM FILES (X86)\WINDOWS KITS\10\LIB\10.0.17134.0\UCRT\X64\UCRTD.LIB
