^E:\JTORT\DOCUMENTS\UNIVERSIDAD\2_CURSO\1_CUATRIMESTRE\EEDD\GITLAB\EEDD\PRACTICA3\PROJECT1\X64\DEBUG\CLIENTE.OBJ|E:\JTORT\DOCUMENTS\UNIVERSIDAD\2_CURSO\1_CUATRIMESTRE\EEDD\GITLAB\EEDD\PRACTICA3\PROJECT1\X64\DEBUG\MAIN.OBJ|E:\JTORT\DOCUMENTS\UNIVERSIDAD\2_CURSO\1_CUATRIMESTRE\EEDD\GITLAB\EEDD\PRACTICA3\PROJECT1\X64\DEBUG\PEDIDO.OBJ|E:\JTORT\DOCUMENTS\UNIVERSIDAD\2_CURSO\1_CUATRIMESTRE\EEDD\GITLAB\EEDD\PRACTICA3\PROJECT1\X64\DEBUG\PHARMADRON.OBJ|E:\JTORT\DOCUMENTS\UNIVERSIDAD\2_CURSO\1_CUATRIMESTRE\EEDD\GITLAB\EEDD\PRACTICA3\PROJECT1\X64\DEBUG\PRODUCTO.OBJ|E:\JTORT\DOCUMENTS\UNIVERSIDAD\2_CURSO\1_CUATRIMESTRE\EEDD\GITLAB\EEDD\PRACTICA3\PROJECT1\X64\DEBUG\UTM.OBJ
E:\JTORT\DOCUMENTS\UNIVERSIDAD\2_CURSO\1_CUATRIMESTRE\EEDD\GITLAB\EEDD\PRACTICA3\X64\DEBUG\PROJECT1.EXE
E:\JTORT\DOCUMENTS\UNIVERSIDAD\2_CURSO\1_CUATRIMESTRE\EEDD\GITLAB\EEDD\PRACTICA3\X64\DEBUG\PROJECT1.ILK
E:\JTORT\DOCUMENTS\UNIVERSIDAD\2_CURSO\1_CUATRIMESTRE\EEDD\GITLAB\EEDD\PRACTICA3\X64\DEBUG\PROJECT1.PDB
